Quartus Prime Project Directory/simulation/modelsim/testbench.vcd
$date
	Mon May 06 16:16:05 2024
$end
$version
	ModelSim Version 2020.1
$end
$timescale
	1ps
$end

$scope module testbench $end
$var parameter 32 ! CLOCKS_PER_PULSE $end
$var reg 4 " data_in [3:0] $end
$var reg 1 # clk $end
$var reg 1 $ rstn $end
$var reg 1 % enable $end
$var reg 1 & tx_busy $end
$var reg 1 ' ready $end
$var reg 4 ( data_out [3:0] $end
$var reg 8 ) display_out [7:0] $end
$var reg 1 * loopback $end
$var reg 1 + ready_clr $end

$scope module test_uart $end
$var parameter 32 , CLOCKS_PER_PULSE $end
$var wire 1 - data_in [3] $end
$var wire 1 . data_in [2] $end
$var wire 1 / data_in [1] $end
$var wire 1 0 data_in [0] $end
$var wire 1 1 data_en $end
$var wire 1 2 clk $end
$var wire 1 3 rstn $end
$var reg 1 4 tx $end
$var reg 1 5 tx_busy $end
$var wire 1 6 ready_clr $end
$var wire 1 7 rx $end
$var reg 1 8 ready $end
$var reg 4 9 led_out [3:0] $end
$var reg 7 : display_out [6:0] $end
$var reg 8 ; data_input [7:0] $end
$var reg 8 < data_output [7:0] $end

$scope module uart_tx $end
$var parameter 32 = CLOCKS_PER_PULSE $end
$var wire 1 > data_in [7] $end
$var wire 1 ? data_in [6] $end
$var wire 1 @ data_in [5] $end
$var wire 1 A data_in [4] $end
$var wire 1 B data_in [3] $end
$var wire 1 C data_in [2] $end
$var wire 1 D data_in [1] $end
$var wire 1 E data_in [0] $end
$var wire 1 1 data_en $end
$var wire 1 2 clk $end
$var wire 1 3 rstn $end
$var reg 1 F tx $end
$var reg 1 G tx_busy $end
$var integer 32 H state $end
$var reg 8 I data [7:0] $end
$var reg 3 J c_bits [2:0] $end
$var reg 2 K c_clocks [1:0] $end
$upscope $end

$scope module uart_rx $end
$var parameter 32 L CLOCKS_PER_PULSE $end
$var wire 1 2 clk $end
$var wire 1 3 rstn $end
$var wire 1 6 ready_clr $end
$var wire 1 7 rx $end
$var reg 1 M ready $end
$var reg 8 N data_out [7:0] $end
$var integer 32 O state $end
$var reg 3 P c_bits [2:0] $end
$var reg 2 Q c_clocks [1:0] $end
$var reg 8 R temp_data [7:0] $end
$var reg 1 S rx_sync $end
$upscope $end

$scope module converter $end
$var wire 1 T data_in [3] $end
$var wire 1 U data_in [2] $end
$var wire 1 V data_in [1] $end
$var wire 1 W data_in [0] $end
$var reg 7 X data_out [6:0] $end
$var reg 112 Y lut_7seg [111:0] $end
$upscope $end
$upscope $end
$upscope $end
$enddefinitions $end
#0
$dumpvars
b1 "
0#
1$
0%
0&
0'
b0 (
b1000000 )
1*
1+
14
05
08
b0 9
b1000000 :
b1 ;
b0 <
1F
0G
b0 I
b0 J
b0 K
0M
b0 N
b0 P
b0 Q
b0 R
xS
b1000000 X
b1101111111111100001111111101110110111001101001111101101100001100111111 Y
b100 !
b100 ,
b100 =
b100 L
b0 H
b0 O
10
0/
0.
0-
01
02
17
16
13
1E
0D
0C
0B
0A
0@
0?
0>
0W
0V
0U
0T
$end
#1000
1#
12
b1 H
b1 I
1S
1G
15
1&
#2000
0#
02
0$
03
b0 I
b0 H
0G
05
0&
#3000
1#
12
#4000
0#
02
1$
13
#5000
1#
12
b1 H
b1 I
1G
15
1&
#6000
0#
02
#7000
1#
12
0F
b1 K
04
0*
07
#8000
0#
02
#9000
1#
12
1%
b10 K
0S
11
#10000
0#
02
#11000
1#
12
b11 K
b1 O
#12000
0#
02
#13000
1#
12
b10 H
b0 K
b1 Q
#14000
0#
02
#15000
1#
12
1F
b1 K
b10 O
b0 Q
14
1*
17
#16000
0#
02
#17000
1#
12
b10 K
1S
b1 Q
#18000
0#
02
#19000
1#
12
b11 K
b10 Q
#20000
0#
02
#21000
1#
12
b0 K
b1 J
b11 Q
#22000
0#
02
#23000
1#
12
0F
b1 K
b0 Q
b1 R
b1 P
b1 N
04
0*
b1 <
b1 9
07
b1 (
1W
b1111001 X
b1111001 :
b1111001 )
#24000
0#
02
#25000
1#
12
b10 K
0S
b1 Q
#26000
0#
02
#27000
1#
12
b11 K
b10 Q
#28000
0#
02
#29000
1#
12
b0 K
b10 J
b11 Q
#30000
0#
02
#31000
1#
12
b1 K
b0 Q
b10 P
#32000
0#
02
#33000
1#
12
b10 K
b1 Q
#34000
0#
02
#35000
1#
12
b11 K
b10 Q
#36000
0#
02
#37000
1#
12
b0 K
b11 J
b11 Q
#38000
0#
02
#39000
1#
12
b1 K
b0 Q
b11 P
#40000
0#
02
#41000
1#
12
b10 K
b1 Q
#42000
0#
02
#43000
1#
12
b11 K
b10 Q
#44000
0#
02
#45000
1#
12
b0 K
b100 J
b11 Q
#46000
0#
02
#47000
1#
12
b1 K
b0 Q
b100 P
#48000
0#
02
#49000
1#
12
b10 K
b1 Q
#50000
0#
02
#51000
1#
12
b11 K
b10 Q
#52000
0#
02
#53000
1#
12
b0 K
b101 J
b11 Q
#54000
0#
02
#55000
1#
12
b1 K
b0 Q
b101 P
#56000
0#
02
#57000
1#
12
b10 K
b1 Q
#58000
0#
02
#59000
1#
12
b11 K
b10 Q
#60000
0#
02
#61000
1#
12
b0 K
b110 J
b11 Q
#62000
0#
02
#63000
1#
12
b1 K
b0 Q
b110 P
#64000
0#
02
#65000
1#
12
b10 K
b1 Q
#66000
0#
02
#67000
1#
12
b11 K
b10 Q
#68000
0#
02
#69000
1#
12
b0 K
b111 J
b11 Q
#70000
0#
02
#71000
1#
12
b1 K
b0 Q
b111 P
#72000
0#
02
#73000
1#
12
b10 K
b1 Q
#74000
0#
02
#75000
1#
12
b11 K
b10 Q
#76000
0#
02
#77000
1#
12
b0 K
b11 H
b11 Q
#78000
0#
02
#79000
1#
12
1F
b1 K
b0 Q
b11 O
b0 P
14
1*
17
#80000
0#
02
#81000
1#
12
b10 K
1S
b1 Q
#82000
0#
02
#83000
1#
12
b11 K
b10 Q
#84000
0#
02
#85000
1#
12
b0 H
b0 K
b11 Q
0G
05
0&
#86000
0#
02
#87000
1#
12
1M
b0 O
b0 Q
18
1'
#88000
0#
02
#89000
1#
12
#90000
0#
02
#91000
1#
12
#92000
0#
02
#93000
1#
12
#94000
0#
02
#95000
1#
12
#96000
0#
02
#97000
1#
12
0$
03
b0 J
b0 I
b0 R
0M
08
b0 N
b0 <
0'
b0 9
b0 (
0W
b1000000 X
b1000000 :
b1000000 )
#98000
0#
02
#99000
1#
12
1$
b10 "
0%
00
1/
01
b10 ;
0E
1D
13
#100000
0#
02
#101000
1#
12
1%
b1 H
b10 I
1G
11
15
1&
#102000
0#
02
#103000
1#
12
0F
b1 K
04
0*
07
#104000
0#
02
#105000
1#
12
b10 K
0S
#106000
0#
02
#107000
1#
12
b11 K
b1 O
#108000
0#
02
#109000
1#
12
b10 H
b0 K
b1 Q
#110000
0#
02
#111000
1#
12
b1 K
b10 O
b0 Q
#112000
0#
02
#113000
1#
12
b10 K
b1 Q
#114000
0#
02
#115000
1#
12
b11 K
b10 Q
#116000
0#
02
#117000
1#
12
b0 K
b1 J
b11 Q
#118000
0#
02
#119000
1#
12
1F
b1 K
b0 Q
b1 P
14
1*
17
#120000
0#
02
#121000
1#
12
b10 K
1S
b1 Q
#122000
0#
02
#123000
1#
12
b11 K
b10 Q
#124000
0#
02
#125000
1#
12
b0 K
b10 J
b11 Q
#126000
0#
02
#127000
1#
12
0F
b1 K
b0 Q
b10 R
b10 P
b10 N
04
0*
b10 <
b10 9
07
b10 (
1V
b100100 X
b100100 :
b100100 )
#128000
0#
02
#129000
1#
12
b10 K
0S
b1 Q
#130000
0#
02
#131000
1#
12
b11 K
b10 Q
#132000
0#
02
#133000
1#
12
b0 K
b11 J
b11 Q
#134000
0#
02
#135000
1#
12
b1 K
b0 Q
b11 P
#136000
0#
02
#137000
1#
12
b10 K
b1 Q
#138000
0#
02
#139000
1#
12
b11 K
b10 Q
#140000
0#
02
#141000
1#
12
b0 K
b100 J
b11 Q
#142000
0#
02
#143000
1#
12
b1 K
b0 Q
b100 P
#144000
0#
02
#145000
1#
12
b10 K
b1 Q
#146000
0#
02
#147000
1#
12
b11 K
b10 Q
#148000
0#
02
#149000
1#
12
b0 K
b101 J
b11 Q
#150000
0#
02
#151000
1#
12
b1 K
b0 Q
b101 P
#152000
0#
02
#153000
1#
12
b10 K
b1 Q
#154000
0#
02
#155000
1#
12
b11 K
b10 Q
#156000
0#
02
#157000
1#
12
b0 K
b110 J
b11 Q
#158000
0#
02
#159000
1#
12
b1 K
b0 Q
b110 P
#160000
0#
02
#161000
1#
12
b10 K
b1 Q
#162000
0#
02
#163000
1#
12
b11 K
b10 Q
#164000
0#
02
#165000
1#
12
b0 K
b111 J
b11 Q
#166000
0#
02
#167000
1#
12
b1 K
b0 Q
b111 P
#168000
0#
02
#169000
1#
12
b10 K
b1 Q
#170000
0#
02
#171000
1#
12
b11 K
b10 Q
#172000
0#
02
#173000
1#
12
b0 K
b11 H
b11 Q
#174000
0#
02
#175000
1#
12
1F
b1 K
b0 Q
b11 O
b0 P
14
1*
17
#176000
0#
02
#177000
1#
12
b10 K
1S
b1 Q
#178000
0#
02
#179000
1#
12
b11 K
b10 Q
#180000
0#
02
#181000
1#
12
b0 H
b0 K
b11 Q
0G
05
0&
#182000
0#
02
#183000
1#
12
1M
b0 O
b0 Q
18
1'
#184000
0#
02
#185000
1#
12
#186000
0#
02
#187000
1#
12
#188000
0#
02
#189000
1#
12
#190000
0#
02
#191000
1#
12
#192000
0#
02
#193000
1#
12
0$
03
b0 J
b0 I
b0 R
0M
08
b0 N
b0 <
0'
b0 9
b0 (
0V
b1000000 X
b1000000 :
b1000000 )
#194000
0#
02
#195000
1#
12
1$
b11 "
0%
10
01
b11 ;
1E
13
#196000
0#
02
#197000
1#
12
1%
b1 H
b11 I
1G
11
15
1&
#198000
0#
02
#199000
1#
12
0F
b1 K
04
0*
07
#200000
0#
02
#201000
1#
12
b10 K
0S
#202000
0#
02
#203000
1#
12
b11 K
b1 O
#204000
0#
02
#205000
1#
12
b10 H
b0 K
b1 Q
#206000
0#
02
#207000
1#
12
1F
b1 K
b10 O
b0 Q
14
1*
17
#208000
0#
02
#209000
1#
12
b10 K
1S
b1 Q
#210000
0#
02
#211000
1#
12
b11 K
b10 Q
#212000
0#
02
#213000
1#
12
b0 K
b1 J
b11 Q
#214000
0#
02
#215000
1#
12
b1 K
b0 Q
b1 R
b1 P
b1 N
b1 <
b1 9
b1 (
1W
b1111001 X
b1111001 :
b1111001 )
#216000
0#
02
#217000
1#
12
b10 K
b1 Q
#218000
0#
02
#219000
1#
12
b11 K
b10 Q
#220000
0#
02
#221000
1#
12
b0 K
b10 J
b11 Q
#222000
0#
02
#223000
1#
12
0F
b1 K
b0 Q
b11 R
b10 P
b11 N
04
0*
b11 <
b11 9
07
b11 (
1V
b110000 X
b110000 :
b110000 )
#224000
0#
02
#225000
1#
12
b10 K
0S
b1 Q
#226000
0#
02
#227000
1#
12
b11 K
b10 Q
#228000
0#
02
#229000
1#
12
b0 K
b11 J
b11 Q
#230000
0#
02
#231000
1#
12
b1 K
b0 Q
b11 P
#232000
0#
02
#233000
1#
12
b10 K
b1 Q
#234000
0#
02
#235000
1#
12
b11 K
b10 Q
#236000
0#
02
#237000
1#
12
b0 K
b100 J
b11 Q
#238000
0#
02
#239000
1#
12
b1 K
b0 Q
b100 P
#240000
0#
02
#241000
1#
12
b10 K
b1 Q
#242000
0#
02
#243000
1#
12
b11 K
b10 Q
#244000
0#
02
#245000
1#
12
b0 K
b101 J
b11 Q
#246000
0#
02
#247000
1#
12
b1 K
b0 Q
b101 P
#248000
0#
02
#249000
1#
12
b10 K
b1 Q
#250000
0#
02
#251000
1#
12
b11 K
b10 Q
#252000
0#
02
#253000
1#
12
b0 K
b110 J
b11 Q
#254000
0#
02
#255000
1#
12
b1 K
b0 Q
b110 P
#256000
0#
02
#257000
1#
12
b10 K
b1 Q
#258000
0#
02
#259000
1#
12
b11 K
b10 Q
#260000
0#
02
#261000
1#
12
b0 K
b111 J
b11 Q
#262000
0#
02
#263000
1#
12
b1 K
b0 Q
b111 P
#264000
0#
02
#265000
1#
12
b10 K
b1 Q
#266000
0#
02
#267000
1#
12
b11 K
b10 Q
#268000
0#
02
#269000
1#
12
b0 K
b11 H
b11 Q
#270000
0#
02
#271000
1#
12
1F
b1 K
b0 Q
b11 O
b0 P
14
1*
17
#272000
0#
02
#273000
1#
12
b10 K
1S
b1 Q
#274000
0#
02
#275000
1#
12
b11 K
b10 Q
#276000
0#
02
#277000
1#
12
b0 H
b0 K
b11 Q
0G
05
0&
#278000
0#
02
#279000
1#
12
1M
b0 O
b0 Q
18
1'
#280000
0#
02
#281000
1#
12
#282000
0#
02
#283000
1#
12
#284000
0#
02
#285000
1#
12
#286000
0#
02
#287000
1#
12
#288000
0#
02
#289000
1#
12
0$
03
b0 J
b0 I
b0 R
0M
08
b0 N
b0 <
0'
b0 9
b0 (
0W
0V
b1000000 X
b1000000 :
b1000000 )
#290000
0#
02
#291000
1#
12
1$
b100 "
0%
00
0/
1.
01
b100 ;
0E
0D
1C
13
#292000
0#
02
#293000
1#
12
1%
b1 H
b100 I
1G
11
15
1&
#294000
0#
02
#295000
1#
12
0F
b1 K
04
0*
07
#296000
0#
02
#297000
1#
12
b10 K
0S
#298000
0#
02
#299000
1#
12
b11 K
b1 O
#300000
0#
02
#301000
1#
12
b10 H
b0 K
b1 Q
#302000
0#
02
#303000
1#
12
b1 K
b10 O
b0 Q
#304000
0#
02
#305000
1#
12
b10 K
b1 Q
#306000
0#
02
#307000
1#
12
b11 K
b10 Q
#308000
0#
02
#309000
1#
12
b0 K
b1 J
b11 Q
#310000
0#
02
#311000
1#
12
b1 K
b0 Q
b1 P
#312000
0#
02
#313000
1#
12
b10 K
b1 Q
#314000
0#
02
#315000
1#
12
b11 K
b10 Q
#316000
0#
02
#317000
1#
12
b0 K
b10 J
b11 Q
#318000
0#
02
#319000
1#
12
1F
b1 K
b0 Q
b10 P
14
1*
17
#320000
0#
02
#321000
1#
12
b10 K
1S
b1 Q
#322000
0#
02
#323000
1#
12
b11 K
b10 Q
#324000
0#
02
#325000
1#
12
b0 K
b11 J
b11 Q
#326000
0#
02
#327000
1#
12
0F
b1 K
b0 Q
b100 R
b11 P
b100 N
04
0*
b100 <
b100 9
07
b100 (
1U
b11001 X
b11001 :
b11001 )
#328000
0#
02
#329000
1#
12
b10 K
0S
b1 Q
#330000
0#
02
#331000
1#
12
b11 K
b10 Q
#332000
0#
02
#333000
1#
12
b0 K
b100 J
b11 Q
#334000
0#
02
#335000
1#
12
b1 K
b0 Q
b100 P
#336000
0#
02
#337000
1#
12
b10 K
b1 Q
#338000
0#
02
#339000
1#
12
b11 K
b10 Q
#340000
0#
02
#341000
1#
12
b0 K
b101 J
b11 Q
#342000
0#
02
#343000
1#
12
b1 K
b0 Q
b101 P
#344000
0#
02
#345000
1#
12
b10 K
b1 Q
#346000
0#
02
#347000
1#
12
b11 K
b10 Q
#348000
0#
02
#349000
1#
12
b0 K
b110 J
b11 Q
#350000
0#
02
#351000
1#
12
b1 K
b0 Q
b110 P
#352000
0#
02
#353000
1#
12
b10 K
b1 Q
#354000
0#
02
#355000
1#
12
b11 K
b10 Q
#356000
0#
02
#357000
1#
12
b0 K
b111 J
b11 Q
#358000
0#
02
#359000
1#
12
b1 K
b0 Q
b111 P
#360000
0#
02
#361000
1#
12
b10 K
b1 Q
#362000
0#
02
#363000
1#
12
b11 K
b10 Q
#364000
0#
02
#365000
1#
12
b0 K
b11 H
b11 Q
#366000
0#
02
#367000
1#
12
1F
b1 K
b0 Q
b11 O
b0 P
14
1*
17
#368000
0#
02
#369000
1#
12
b10 K
1S
b1 Q
#370000
0#
02
#371000
1#
12
b11 K
b10 Q
#372000
0#
02
#373000
1#
12
b0 H
b0 K
b11 Q
0G
05
0&
#374000
0#
02
#375000
1#
12
1M
b0 O
b0 Q
18
1'
#376000
0#
02
#377000
1#
12
#378000
0#
02
#379000
1#
12
#380000
0#
02
#381000
1#
12
#382000
0#
02
#383000
1#
12
#384000
0#
02
#385000
1#
12
0$
03
b0 J
b0 I
b0 R
0M
08
b0 N
b0 <
0'
b0 9
b0 (
0U
b1000000 X
b1000000 :
b1000000 )
#386000
0#
02
#387000
1#
12
1$
b101 "
0%
10
01
b101 ;
1E
13
#388000
0#
02
#389000
1#
12
1%
b1 H
b101 I
1G
11
15
1&
#390000
0#
02
#391000
1#
12
0F
b1 K
04
0*
07
#392000
0#
02
#393000
1#
12
b10 K
0S
#394000
0#
02
#395000
1#
12
b11 K
b1 O
#396000
0#
02
#397000
1#
12
b10 H
b0 K
b1 Q
#398000
0#
02
#399000
1#
12
1F
b1 K
b10 O
b0 Q
14
1*
17
#400000
0#
02
#401000
1#
12
b10 K
1S
b1 Q
#402000
0#
02
#403000
1#
12
b11 K
b10 Q
#404000
0#
02
#405000
1#
12
b0 K
b1 J
b11 Q
#406000
0#
02
#407000
1#
12
0F
b1 K
b0 Q
b1 R
b1 P
b1 N
04
0*
b1 <
b1 9
07
b1 (
1W
b1111001 X
b1111001 :
b1111001 )
#408000
0#
02
#409000
1#
12
b10 K
0S
b1 Q
#410000
0#
02
#411000
1#
12
b11 K
b10 Q
#412000
0#
02
#413000
1#
12
b0 K
b10 J
b11 Q
#414000
0#
02
#415000
1#
12
1F
b1 K
b0 Q
b10 P
14
1*
17
#416000
0#
02
#417000
1#
12
b10 K
1S
b1 Q
#418000
0#
02
#419000
1#
12
b11 K
b10 Q
#420000
0#
02
#421000
1#
12
b0 K
b11 J
b11 Q
#422000
0#
02
#423000
1#
12
0F
b1 K
b0 Q
b101 R
b11 P
b101 N
04
0*
b101 <
b101 9
07
b101 (
1U
b10010 X
b10010 :
b10010 )
#424000
0#
02
#425000
1#
12
b10 K
0S
b1 Q
#426000
0#
02
#427000
1#
12
b11 K
b10 Q
#428000
0#
02
#429000
1#
12
b0 K
b100 J
b11 Q
#430000
0#
02
#431000
1#
12
b1 K
b0 Q
b100 P
#432000
0#
02
#433000
1#
12
b10 K
b1 Q
#434000
0#
02
#435000
1#
12
b11 K
b10 Q
#436000
0#
02
#437000
1#
12
b0 K
b101 J
b11 Q
#438000
0#
02
#439000
1#
12
b1 K
b0 Q
b101 P
#440000
0#
02
#441000
1#
12
b10 K
b1 Q
#442000
0#
02
#443000
1#
12
b11 K
b10 Q
#444000
0#
02
#445000
1#
12
b0 K
b110 J
b11 Q
#446000
0#
02
#447000
1#
12
b1 K
b0 Q
b110 P
#448000
0#
02
#449000
1#
12
b10 K
b1 Q
#450000
0#
02
#451000
1#
12
b11 K
b10 Q
#452000
0#
02
#453000
1#
12
b0 K
b111 J
b11 Q
#454000
0#
02
#455000
1#
12
b1 K
b0 Q
b111 P
#456000
0#
02
#457000
1#
12
b10 K
b1 Q
#458000
0#
02
#459000
1#
12
b11 K
b10 Q
#460000
0#
02
#461000
1#
12
b0 K
b11 H
b11 Q
#462000
0#
02
#463000
1#
12
1F
b1 K
b0 Q
b11 O
b0 P
14
1*
17
#464000
0#
02
#465000
1#
12
b10 K
1S
b1 Q
#466000
0#
02
#467000
1#
12
b11 K
b10 Q
#468000
0#
02
#469000
1#
12
b0 H
b0 K
b11 Q
0G
05
0&
#470000
0#
02
#471000
1#
12
1M
b0 O
b0 Q
18
1'
#472000
0#
02
#473000
1#
12
#474000
0#
02
#475000
1#
12
#476000
0#
02
#477000
1#
12
#478000
0#
02
#479000
1#
12
#480000
0#
02
#481000
1#
12
0$
03
b0 J
b0 I
b0 R
0M
08
b0 N
b0 <
0'
b0 9
b0 (
0W
0U
b1000000 X
b1000000 :
b1000000 )
#482000
0#
02
#483000
1#
12
1$
b110 "
0%
00
1/
01
b110 ;
0E
1D
13
#484000
0#
02
#485000
1#
12
1%
b1 H
b110 I
1G
11
15
1&
#486000
0#
02
#487000
1#
12
0F
b1 K
04
0*
07
#488000
0#
02
#489000
1#
12
b10 K
0S
#490000
0#
02
#491000
1#
12
b11 K
b1 O
#492000
0#
02
#493000
1#
12
b10 H
b0 K
b1 Q
#494000
0#
02
#495000
1#
12
b1 K
b10 O
b0 Q
#496000
0#
02
#497000
1#
12
b10 K
b1 Q
#498000
0#
02
#499000
1#
12
b11 K
b10 Q
#500000
0#
02
#501000
1#
12
b0 K
b1 J
b11 Q
#502000
0#
02
#503000
1#
12
1F
b1 K
b0 Q
b1 P
14
1*
17
#504000
0#
02
#505000
1#
12
b10 K
1S
b1 Q
#506000
0#
02
#507000
1#
12
b11 K
b10 Q
#508000
0#
02
#509000
1#
12
b0 K
b10 J
b11 Q
#510000
0#
02
#511000
1#
12
b1 K
b0 Q
b10 R
b10 P
b10 N
b10 <
b10 9
b10 (
1V
b100100 X
b100100 :
b100100 )
#512000
0#
02
#513000
1#
12
b10 K
b1 Q
#514000
0#
02
#515000
1#
12
b11 K
b10 Q
#516000
0#
02
#517000
1#
12
b0 K
b11 J
b11 Q
#518000
0#
02
#519000
1#
12
0F
b1 K
b0 Q
b110 R
b11 P
b110 N
04
0*
b110 <
b110 9
07
b110 (
1U
b10 X
b10 :
b10 )
#520000
0#
02
#521000
1#
12
b10 K
0S
b1 Q
#522000
0#
02
#523000
1#
12
b11 K
b10 Q
#524000
0#
02
#525000
1#
12
b0 K
b100 J
b11 Q
#526000
0#
02
#527000
1#
12
b1 K
b0 Q
b100 P
#528000
0#
02
#529000
1#
12
b10 K
b1 Q
#530000
0#
02
#531000
1#
12
b11 K
b10 Q
#532000
0#
02
#533000
1#
12
b0 K
b101 J
b11 Q
#534000
0#
02
#535000
1#
12
b1 K
b0 Q
b101 P
#536000
0#
02
#537000
1#
12
b10 K
b1 Q
#538000
0#
02
#539000
1#
12
b11 K
b10 Q
#540000
0#
02
#541000
1#
12
b0 K
b110 J
b11 Q
#542000
0#
02
#543000
1#
12
b1 K
b0 Q
b110 P
#544000
0#
02
#545000
1#
12
b10 K
b1 Q
#546000
0#
02
#547000
1#
12
b11 K
b10 Q
#548000
0#
02
#549000
1#
12
b0 K
b111 J
b11 Q
#550000
0#
02
#551000
1#
12
b1 K
b0 Q
b111 P
#552000
0#
02
#553000
1#
12
b10 K
b1 Q
#554000
0#
02
#555000
1#
12
b11 K
b10 Q
#556000
0#
02
#557000
1#
12
b0 K
b11 H
b11 Q
#558000
0#
02
#559000
1#
12
1F
b1 K
b0 Q
b11 O
b0 P
14
1*
17
#560000
0#
02
#561000
1#
12
b10 K
1S
b1 Q
#562000
0#
02
#563000
1#
12
b11 K
b10 Q
#564000
0#
02
#565000
1#
12
b0 H
b0 K
b11 Q
0G
05
0&
#566000
0#
02
#567000
1#
12
1M
b0 O
b0 Q
18
1'
#568000
0#
02
#569000
1#
12
#570000
0#
02
#571000
1#
12
#572000
0#
02
#573000
1#
12
#574000
0#
02
#575000
1#
12
#576000
0#
02
#577000
1#
12
0$
03
b0 J
b0 I
b0 R
0M
08
b0 N
b0 <
0'
b0 9
b0 (
0V
0U
b1000000 X
b1000000 :
b1000000 )
#578000
0#
02
#579000
1#
12
1$
b111 "
0%
10
01
b111 ;
1E
13
#580000
0#
02
#581000
1#
12
1%
b1 H
b111 I
1G
11
15
1&
#582000
0#
02
#583000
1#
12
0F
b1 K
04
0*
07
#584000
0#
02
#585000
1#
12
b10 K
0S
#586000
0#
02
#587000
1#
12
b11 K
b1 O
#588000
0#
02
#589000
1#
12
b10 H
b0 K
b1 Q
#590000
0#
02
#591000
1#
12
1F
b1 K
b10 O
b0 Q
14
1*
17
#592000
0#
02
#593000
1#
12
b10 K
1S
b1 Q
#594000
0#
02
#595000
1#
12
b11 K
b10 Q
#596000
0#
02
#597000
1#
12
b0 K
b1 J
b11 Q
#598000
0#
02
#599000
1#
12
b1 K
b0 Q
b1 R
b1 P
b1 N
b1 <
b1 9
b1 (
1W
b1111001 X
b1111001 :
b1111001 )
#600000
0#
02
#601000
1#
12
b10 K
b1 Q
#602000
0#
02
#603000
1#
12
b11 K
b10 Q
#604000
0#
02
#605000
1#
12
b0 K
b10 J
b11 Q
#606000
0#
02
#607000
1#
12
b1 K
b0 Q
b11 R
b10 P
b11 N
b11 <
b11 9
b11 (
1V
b110000 X
b110000 :
b110000 )
#608000
0#
02
#609000
1#
12
b10 K
b1 Q
#610000
0#
02
#611000
1#
12
b11 K
b10 Q
#612000
0#
02
#613000
1#
12
b0 K
b11 J
b11 Q
#614000
0#
02
#615000
1#
12
0F
b1 K
b0 Q
b111 R
b11 P
b111 N
04
0*
b111 <
b111 9
07
b111 (
1U
b1111000 X
b1111000 :
b1111000 )
#616000
0#
02
#617000
1#
12
b10 K
0S
b1 Q
#618000
0#
02
#619000
1#
12
b11 K
b10 Q
#620000
0#
02
#621000
1#
12
b0 K
b100 J
b11 Q
#622000
0#
02
#623000
1#
12
b1 K
b0 Q
b100 P
#624000
0#
02
#625000
1#
12
b10 K
b1 Q
#626000
0#
02
#627000
1#
12
b11 K
b10 Q
#628000
0#
02
#629000
1#
12
b0 K
b101 J
b11 Q
#630000
0#
02
#631000
1#
12
b1 K
b0 Q
b101 P
#632000
0#
02
#633000
1#
12
b10 K
b1 Q
#634000
0#
02
#635000
1#
12
b11 K
b10 Q
#636000
0#
02
#637000
1#
12
b0 K
b110 J
b11 Q
#638000
0#
02
#639000
1#
12
b1 K
b0 Q
b110 P
#640000
0#
02
#641000
1#
12
b10 K
b1 Q
#642000
0#
02
#643000
1#
12
b11 K
b10 Q
#644000
0#
02
#645000
1#
12
b0 K
b111 J
b11 Q
#646000
0#
02
#647000
1#
12
b1 K
b0 Q
b111 P
#648000
0#
02
#649000
1#
12
b10 K
b1 Q
#650000
0#
02
#651000
1#
12
b11 K
b10 Q
#652000
0#
02
#653000
1#
12
b0 K
b11 H
b11 Q
#654000
0#
02
#655000
1#
12
1F
b1 K
b0 Q
b11 O
b0 P
14
1*
17
#656000
0#
02
#657000
1#
12
b10 K
1S
b1 Q
#658000
0#
02
#659000
1#
12
b11 K
b10 Q
#660000
0#
02
#661000
1#
12
b0 H
b0 K
b11 Q
0G
05
0&
#662000
0#
02
#663000
1#
12
1M
b0 O
b0 Q
18
1'
#664000
0#
02
#665000
1#
12
#666000
0#
02
#667000
1#
12
#668000
0#
02
#669000
1#
12
#670000
0#
02
#671000
1#
12
#672000
0#
02
#673000
1#
12
0$
03
b0 J
b0 I
b0 R
0M
08
b0 N
b0 <
0'
b0 9
b0 (
0W
0V
0U
b1000000 X
b1000000 :
b1000000 )
#674000
0#
02
#675000
1#
12
1$
b1000 "
0%
00
0/
0.
1-
01
b1000 ;
0E
0D
0C
1B
13
#676000
0#
02
#677000
1#
12
1%
b1 H
b1000 I
1G
11
15
1&
#678000
0#
02
#679000
1#
12
0F
b1 K
04
0*
07
#680000
0#
02
#681000
1#
12
b10 K
0S
#682000
0#
02
#683000
1#
12
b11 K
b1 O
#684000
0#
02
#685000
1#
12
b10 H
b0 K
b1 Q
#686000
0#
02
#687000
1#
12
b1 K
b10 O
b0 Q
#688000
0#
02
#689000
1#
12
b10 K
b1 Q
#690000
0#
02
#691000
1#
12
b11 K
b10 Q
#692000
0#
02
#693000
1#
12
b0 K
b1 J
b11 Q
#694000
0#
02
#695000
1#
12
b1 K
b0 Q
b1 P
#696000
0#
02
#697000
1#
12
b10 K
b1 Q
#698000
0#
02
#699000
1#
12
b11 K
b10 Q
#700000
0#
02
#701000
1#
12
b0 K
b10 J
b11 Q
#702000
0#
02
#703000
1#
12
b1 K
b0 Q
b10 P
#704000
0#
02
#705000
1#
12
b10 K
b1 Q
#706000
0#
02
#707000
1#
12
b11 K
b10 Q
#708000
0#
02
#709000
1#
12
b0 K
b11 J
b11 Q
#710000
0#
02
#711000
1#
12
1F
b1 K
b0 Q
b11 P
14
1*
17
#712000
0#
02
#713000
1#
12
b10 K
1S
b1 Q
#714000
0#
02
#715000
1#
12
b11 K
b10 Q
#716000
0#
02
#717000
1#
12
b0 K
b100 J
b11 Q
#718000
0#
02
#719000
1#
12
0F
b1 K
b0 Q
b1000 R
b100 P
b1000 N
04
0*
b1000 <
b1000 9
07
b1000 (
1T
b0 X
b0 :
b0 )
#720000
0#
02
#721000
1#
12
b10 K
0S
b1 Q
#722000
0#
02
#723000
1#
12
b11 K
b10 Q
#724000
0#
02
#725000
1#
12
b0 K
b101 J
b11 Q
#726000
0#
02
#727000
1#
12
b1 K
b0 Q
b101 P
#728000
0#
02
#729000
1#
12
b10 K
b1 Q
#730000
0#
02
#731000
1#
12
b11 K
b10 Q
#732000
0#
02
#733000
1#
12
b0 K
b110 J
b11 Q
#734000
0#
02
#735000
1#
12
b1 K
b0 Q
b110 P
#736000
0#
02
#737000
1#
12
b10 K
b1 Q
#738000
0#
02
#739000
1#
12
b11 K
b10 Q
#740000
0#
02
#741000
1#
12
b0 K
b111 J
b11 Q
#742000
0#
02
#743000
1#
12
b1 K
b0 Q
b111 P
#744000
0#
02
#745000
1#
12
b10 K
b1 Q
#746000
0#
02
#747000
1#
12
b11 K
b10 Q
#748000
0#
02
#749000
1#
12
b0 K
b11 H
b11 Q
#750000
0#
02
#751000
1#
12
1F
b1 K
b0 Q
b11 O
b0 P
14
1*
17
#752000
0#
02
#753000
1#
12
b10 K
1S
b1 Q
#754000
0#
02
#755000
1#
12
b11 K
b10 Q
#756000
0#
02
#757000
1#
12
b0 H
b0 K
b11 Q
0G
05
0&
#758000
0#
02
#759000
1#
12
1M
b0 O
b0 Q
18
1'
#760000
0#
02
#761000
1#
12
#762000
0#
02
#763000
1#
12
#764000
0#
02
#765000
1#
12
#766000
0#
02
#767000
1#
12
#768000
0#
02
#769000
1#
12
0$
03
b0 J
b0 I
b0 R
0M
08
b0 N
b0 <
0'
b0 9
b0 (
0T
b1000000 X
b1000000 :
b1000000 )
